[
  {
    "id": "1",
    "submitID": "101",
    "firstName": "Nguyễn Văn",
    "lastName": "A",
    "birthDay": "29/2/2009",
    "status": "Đã trúng tuyển",
    "lastUpdate":"08/08/2021 13:00:01",
    "isUpdate": true,
    "isAccept": true
    }, 
  {
    "id": "2",
    "submitID": "102",
    "firstName": "Nguyễn Văn",
    "lastName": "B",
    "birthDay": "29/2/2009",
    "status": "Không trúng tuyển",
    "reason": "abcdefg hijk lmnop",
    "lastUpdate":"08/08/2021 13:00:01",
    "isUpdate": true,
    "isAccept": true
  }, 
  {
    "id": "3",
    "submitID": "103",
    "firstName": "Nguyễn Văn",
    "lastName": "C",
    "birthDay": "29/2/2009",
    "status": "Đã trúng tuyển",
    "lastUpdate":"08/08/2021 13:00:01",
    "isUpdate": false,
    "isAccept": false
  }, 
  {
    "id": "4",
    "submitID": "104",
    "firstName": "Nguyễn Văn",
    "lastName": "D",
    "birthDay": "29/2/2009",
    "status": "Không trúng tuyển",
    "reason": "abcdefg hijk lmnop",
    "lastUpdate":"08/08/2021 13:00:01",
    "isUpdate": true,
    "isAccept": false
  }, 
  {
    "id": "5",
    "submitID": "105",
    "firstName": "Nguyễn Văn",
    "lastName": "E",
    "birthDay": "29/2/2009",
    "status": "Không trúng tuyển",
    "reason": "abcdefg hijk lmnop",
    "lastUpdate":"08/08/2021 13:00:01",
    "isUpdate": false,
    "isAccept": true
  }, 
  {
    "id": "6",
    "submitID": "106",
    "firstName": "Nguyễn Văn",
    "lastName": "F",
    "birthDay": "29/2/2009",
    "status": "Không trúng tuyển",
    "reason": "abcdefg hijk lmnop"
  }, 
  {
    "id": "7",
    "submitID": "107",
    "firstName": "Nguyễn Văn",
    "lastName": "G",
    "birthDay": "29/2/2009",
    "status": "Đã trúng tuyển"
  }, 
  {
    "id": "8",
    "submitID": "108",
    "firstName": "Nguyễn Văn",
    "lastName": "H",
    "birthDay": "29/2/2009",
    "status": "Đã trúng tuyển"
  }, 
  {
    "id": "9",
    "submitID": "109",
    "firstName": "Nguyễn Văn",
    "lastName": "I",
    "birthDay": "29/2/2009",
    "status": "Đã trúng tuyển"
  }, 
  {
    "id": "10",
    "submitID": "110",
    "firstName": "Nguyễn Văn",
    "lastName": "K",
    "birthDay": "29/2/2009",
    "status": "Đã trúng tuyển"
  }, 
  {
    "id": "11",
    "submitID": "111",
    "firstName": "Nguyễn Văn",
    "lastName": "L",
    "birthDay": "29/2/2009",
    "status": "Đã trúng tuyển"
  }, 
  {
    "id": "12",
    "submitID": "112",
    "firstName": "Nguyễn Văn",
    "lastName": "M",
    "birthDay": "29/2/2009",
    "status": "Không trúng tuyển",
    "reason": "Học sinh ngoan quá"
  }, 
  {
    "id": "13",
    "submitID": "113",
    "firstName": "Nguyễn Văn",
    "lastName": "N",
    "birthDay": "29/2/2009",
    "status": "Đã trúng tuyển"
  }, 
  {
    "id": "14",
    "submitID": "114",
    "firstName": "Nguyễn Văn",
    "lastName": "O",
    "birthDay": "29/2/2009",
    "status": "Không trúng tuyển",
    "reason": "abcdefg hijk lmnop"
  }, 
  {
    "id": "15",
    "submitID": "115",
    "firstName": "Nguyễn Văn",
    "lastName": "P",
    "birthDay": "29/2/2009",
    "status": "Không trúng tuyển",
    "reason": "abcdefg hijk lmnop"
  }, 
  {
    "id": "16",
    "submitID": "116",
    "firstName": "Nguyễn Văn",
    "lastName": "Q",
    "birthDay": "29/2/2009",
    "status": "Không trúng tuyển",
    "reason": "abcdefg hijk lmnop"
  }, 
  {
    "id": "17",
    "submitID": "117",
    "firstName": "Nguyễn Văn",
    "lastName": "R",
    "birthDay": "29/2/2009",
    "status": "Đã trúng tuyển"
  }, 
  {
    "id": "18",
    "submitID": "118",
    "firstName": "Nguyễn Văn",
    "lastName": "S",
    "birthDay": "29/2/2009",
    "status": "Đã trúng tuyển"
  }, 
  {
    "id": "19",
    "submitID": "119",
    "firstName": "Nguyễn Văn",
    "lastName": "T",
    "birthDay": "29/2/2009",
    "status": "Không trúng tuyển",
    "reason": "abcdefg hijk lmnop"
  }, 
  {
    "id": "20",
    "submitID": "120",
    "firstName": "Nguyễn Văn",
    "lastName": "U",
    "birthDay": "29/2/2009",
    "status": "Đã trúng tuyển"
  }, 
  {
    "id": "21",
    "submitID": "121",
    "firstName": "Nguyễn Văn",
    "lastName": "V",
    "birthDay": "29/2/2009",
    "status": "Đã trúng tuyển"
  }, 
  {
    "id": "22",
    "submitID": "122",
    "firstName": "Nguyễn Văn",
    "lastName": "W",
    "birthDay": "29/2/2009",
    "status": "Đã trúng tuyển"
  }, 
  {
    "id": "23",
    "submitID": "123",
    "firstName": "Nguyễn Văn",
    "lastName": "X",
    "birthDay": "29/2/2009",
    "status": "Đã trúng tuyển"
  }, 
  {
    "id": "24",
    "submitID": "124",
    "firstName": "Nguyễn Văn",
    "lastName": "Y",
    "birthDay": "29/2/2009",
    "status": "Đã trúng tuyển"
  }, 
  {
    "id": "25",
    "submitID": "125",
    "firstName": "Nguyễn Văn",
    "lastName": "Z",
    "birthDay": "29/2/2009",
    "status": "Đã trúng tuyển"
  }, 
  {
    "id": "26",
    "submitID": "126",
    "firstName": "Nguyễn Văn",
    "lastName": "PP",
    "birthDay": "29/2/2009",
    "status": "Đã trúng tuyển"
  }, 
  {
    "id": "27",
    "submitID": "127",
    "firstName": "Nguyễn Văn",
    "lastName": "OO",
    "birthDay": "29/2/2009",
    "status": "Không trúng tuyển",
    "reason": "abcdefg hijk lmnop"
  }, 
  {
    "id": "28",
    "submitID": "128",
    "firstName": "Nguyễn Văn",
    "lastName": "NN",
    "birthDay": "29/2/2009",
    "status": "Đã trúng tuyển"
  }, 
  {
    "id": "29",
    "submitID": "129",
    "firstName": "Nguyễn Văn",
    "lastName": "MM",
    "birthDay": "29/2/2009",
    "status": "Đã trúng tuyển"
  }, 
  {
    "id": "30",
    "submitID": "130",
    "firstName": "Nguyễn Văn",
    "lastName": "LL",
    "birthDay": "29/2/2009",
    "status": "Đã trúng tuyển"
  }, 
  {
    "id": "31",
    "submitID": "131",
    "firstName": "Nguyễn Văn",
    "lastName": "KK",
    "birthDay": "29/2/2009",
    "status": "Không trúng tuyển",
    "reason": "abcdefg hijk lmnop"
  }, 
  {
    "id": "32",
    "submitID": "132",
    "firstName": "Nguyễn Văn",
    "lastName": "II",
    "birthDay": "29/2/2009",
    "status": "Đã trúng tuyển"
  }, 
  {
    "id": "33",
    "submitID": "133",
    "firstName": "Nguyễn Văn",
    "lastName": "HH",
    "birthDay": "29/2/2009",
    "status": "Đã trúng tuyển"
  }, 
  {
    "id": "34",
    "submitID": "134",
    "firstName": "Nguyễn Văn",
    "lastName": "GG",
    "birthDay": "29/2/2009",
    "status": "Không trúng tuyển",
    "reason": "abcdefg hijk lmnop"
  }, 
  {
    "id": "35",
    "submitID": "135",
    "firstName": "Nguyễn Văn",
    "lastName": "FF",
    "birthDay": "29/2/2009",
    "status": "Không trúng tuyển",
    "reason": "abcdefg hijk lmnop"
  }, 
  {
    "id": "36",
    "submitID": "136",
    "firstName": "Nguyễn Văn",
    "lastName": "EE",
    "birthDay": "29/2/2009",
    "status": "Không trúng tuyển",
    "reason": "abcdefg hijk lmnop"
  }, 
  {
    "id": "37",
    "submitID": "137",
    "firstName": "Nguyễn Văn",
    "lastName": "DD",
    "birthDay": "29/2/2009",
    "status": "Đã trúng tuyển"
  }, 
  {
    "id": "38",
    "submitID": "138",
    "firstName": "Nguyễn Văn",
    "lastName": "CC",
    "birthDay": "29/2/2009",
    "status": "Không trúng tuyển",
    "reason": "abcdefg hijk lmnop"
  }, 
  {
    "id": "39",
    "submitID": "139",
    "firstName": "Nguyễn Văn",
    "lastName": "BB",
    "birthDay": "29/2/2009",
    "status": "Không trúng tuyển",
    "reason": "abcdefg hijk lmnop"
  }, 
  {
    "id": "40",
    "submitID": "140",
    "firstName": "Nguyễn Văn",
    "lastName": "AA",
    "birthDay": "29/2/2009",
    "status": "Đã trúng tuyển"
  },
  {
    "id": "41",
    "submitID": "141",
    "firstName": "Nguyễn Văn",
    "lastName": "AAA",
    "birthDay": "29/2/2009",
    "status": "Chưa xét duyệt"
  },
  {
    "id": "42",
    "submitID": "142",
    "firstName": "Nguyễn Văn",
    "lastName": "AAB",
    "birthDay": "29/2/2009",
    "status": "Chưa xét duyệt"
  },
  {
    "id": "43",
    "submitID": "143",
    "firstName": "Nguyễn Văn",
    "lastName": "AAC",
    "birthDay": "29/2/2009",
    "status": "Chưa xét duyệt"
  },
  {
    "id": "44",
    "submitID": "144",
    "firstName": "Nguyễn Văn",
    "lastName": "AAD",
    "birthDay": "29/2/2009",
    "status": "Chưa xét duyệt"
  },
  {
    "id": "45",
    "submitID": "145",
    "firstName": "Nguyễn Văn",
    "lastName": "AAE",
    "birthDay": "29/2/2009",
    "status": "Đang xét duyệt"
  },
  {
    "id": "46",
    "submitID": "146",
    "firstName": "Nguyễn Văn",
    "lastName": "AAF",
    "birthDay": "29/2/2009",
    "status": "Chưa xét duyệt"
  },
  {
    "id": "47",
    "submitID": "147",
    "firstName": "Nguyễn Văn",
    "lastName": "AAG",
    "birthDay": "29/2/2009",
    "status": "Đang xử lí bởi Hoàng Văn Tèo"
  },
  {
    "id": "48",
    "submitID": "148",
    "firstName": "Nguyễn Văn",
    "lastName": "AAH",
    "birthDay": "29/2/2009",
    "status": "Chưa xét duyệt"
  },
  {
    "id": "49",
    "submitID": "149",
    "firstName": "Nguyễn Văn",
    "lastName": "AAI",
    "birthDay": "29/2/2009",
    "status": "Chưa xét duyệt"
  },
  {
    "id": "50",
    "submitID": "150",
    "firstName": "Nguyễn Văn",
    "lastName": "AAK",
    "birthDay": "29/2/2009",
    "status": "Chưa xét duyệt"
  }
]